tests/jtag_capture.vcd
$date today $end
$timescale 1 ns $end
$scope module capture $end
$var wire 1 0 tck $end
$var wire 1 1 tms $end
$var wire 1 2 tdi $end
$var wire 1 3 tdo $end
$upscope $end
$enddefinitions $end
#0
$dumpvars
00
11
02
03
$end
#1
10
#2
00
11
#3
10
#4
00
11
#5
10
#6
00
11
#7
10
#8
00
11
#9
10
#10
00
01
#11
10
#12
02
00
11
#13
10
#14
00
11
#15
10
#16
00
01
#17
10
#18
00
01
#19
10
#20
01
00
02
#21
10
#22
00
02
#23
10
#24
00
02
#25
10
#26
00
02
#27
10
#28
00
02
#29
10
#30
00
12
#31
10
#32
00
02
#33
10
#34
00
02
11
#35
10
#36
02
00
11
#37
10
#38
00
11
#39
10
#40
00
01
#41
10
#42
00
01
#43
10
#44
01
00
03
#45
10
#46
00
03
#47
10
#48
00
03
#49
10
#50
00
03
#51
10
#52
00
03
#53
10
#54
00
03
#55
10
#56
00
03
#57
10
#58
00
03
#59
10
#60
00
03
#61
10
#62
00
03
#63
10
#64
00
03
#65
10
#66
00
03
#67
10
#68
00
03
#69
10
#70
00
03
#71
10
#72
00
03
#73
10
#74
00
03
#75
10
#76
00
03
#77
10
#78
00
03
#79
10
#80
00
03
#81
10
#82
00
03
#83
10
#84
00
03
#85
10
#86
00
03
#87
10
#88
00
03
#89
10
#90
00
03
#91
10
#92
00
03
#93
10
#94
00
03
#95
10
#96
00
03
#97
10
#98
00
03
#99
10
#100
00
03
#101
10
#102
00
03
#103
10
#104
00
03
#105
10
#106
00
03
11
#107
10
#108
02
00
11
#109
10
#110
00
01
#111
10
#112
02
00
11
#113
10
#114
00
11
#115
10
#116
00
01
#117
10
#118
00
01
#119
10
#120
01
00
02
#121
10
#122
00
02
#123
10
#124
00
02
#125
10
#126
00
02
#127
10
#128
00
02
#129
10
#130
00
12
#131
10
#132
00
02
#133
10
#134
00
02
11
#135
10
#136
02
00
11
#137
10
#138
00
11
#139
10
#140
00
01
#141
10
#142
00
01
#143
10
#144
01
00
03
#145
10
#146
00
03
#147
10
#148
00
03
#149
10
#150
00
03
#151
10
#152
00
03
#153
10
#154
00
03
#155
10
#156
00
03
#157
10
#158
00
03
#159
10
#160
00
03
#161
10
#162
00
03
#163
10
#164
00
03
#165
10
#166
00
03
#167
10
#168
00
03
#169
10
#170
00
03
#171
10
#172
00
03
#173
10
#174
00
03
#175
10
#176
00
03
#177
10
#178
00
03
#179
10
#180
00
03
#181
10
#182
00
03
#183
10
#184
00
03
#185
10
#186
00
03
#187
10
#188
00
03
#189
10
#190
00
03
#191
10
#192
00
03
#193
10
#194
00
03
#195
10
#196
00
03
#197
10
#198
00
03
#199
10
#200
00
03
#201
10
#202
00
03
#203
10
#204
00
03
#205
10
#206
00
13
11
#207
10
#208
02
00
11
#209
10
#210
00
01
#211
10
#212
02
00
11
#213
10
#214
00
11
#215
10
#216
00
01
#217
10
#218
00
01
#219
10
#220
01
00
02
#221
10
#222
00
02
#223
10
#224
00
02
#225
10
#226
00
02
#227
10
#228
00
02
#229
10
#230
00
12
#231
10
#232
00
02
#233
10
#234
00
02
11
#235
10
#236
02
00
11
#237
10
#238
00
11
#239
10
#240
00
01
#241
10
#242
00
01
#243
10
#244
01
00
03
#245
10
#246
00
03
#247
10
#248
00
03
#249
10
#250
00
03
#251
10
#252
00
03
#253
10
#254
00
03
#255
10
#256
00
03
#257
10
#258
00
03
#259
10
#260
00
03
#261
10
#262
00
03
#263
10
#264
00
03
#265
10
#266
00
03
#267
10
#268
00
03
#269
10
#270
00
03
#271
10
#272
00
03
#273
10
#274
00
03
#275
10
#276
00
03
#277
10
#278
00
03
#279
10
#280
00
03
#281
10
#282
00
03
#283
10
#284
00
03
#285
10
#286
00
03
#287
10
#288
00
03
#289
10
#290
00
03
#291
10
#292
00
03
#293
10
#294
00
03
#295
10
#296
00
03
#297
10
#298
00
03
#299
10
#300
00
03
#301
10
#302
00
03
#303
10
#304
00
13
#305
10
#306
00
03
11
#307
10
#308
02
00
11
#309
10
#310
00
01
#311
10
#312
02
00
11
#313
10
#314
00
11
#315
10
#316
00
01
#317
10
#318
00
01
#319
10
#320
01
00
02
#321
10
#322
00
02
#323
10
#324
00
02
#325
10
#326
00
02
#327
10
#328
00
02
#329
10
#330
00
12
#331
10
#332
00
02
#333
10
#334
00
02
11
#335
10
#336
02
00
11
#337
10
#338
00
11
#339
10
#340
00
01
#341
10
#342
00
01
#343
10
#344
01
00
03
#345
10
#346
00
03
#347
10
#348
00
03
#349
10
#350
00
03
#351
10
#352
00
03
#353
10
#354
00
03
#355
10
#356
00
03
#357
10
#358
00
03
#359
10
#360
00
03
#361
10
#362
00
03
#363
10
#364
00
03
#365
10
#366
00
03
#367
10
#368
00
03
#369
10
#370
00
03
#371
10
#372
00
03
#373
10
#374
00
03
#375
10
#376
00
03
#377
10
#378
00
03
#379
10
#380
00
03
#381
10
#382
00
03
#383
10
#384
00
03
#385
10
#386
00
03
#387
10
#388
00
03
#389
10
#390
00
03
#391
10
#392
00
03
#393
10
#394
00
03
#395
10
#396
00
03
#397
10
#398
00
03
#399
10
#400
00
03
#401
10
#402
00
03
#403
10
#404
00
13
#405
10
#406
00
13
11
#407
10
#408
02
00
11
#409
10
#410
00
01
#411
10
#412
02
00
11
#413
10
#414
00
11
#415
10
#416
00
01
#417
10
#418
00
01
#419
10
#420
01
00
02
#421
10
#422
00
02
#423
10
#424
00
02
#425
10
#426
00
02
#427
10
#428
00
02
#429
10
#430
00
12
#431
10
#432
00
02
#433
10
#434
00
02
11
#435
10
#436
02
00
11
#437
10
#438
00
11
#439
10
#440
00
01
#441
10
#442
00
01
#443
10
#444
01
00
03
#445
10
#446
00
03
#447
10
#448
00
03
#449
10
#450
00
03
#451
10
#452
00
03
#453
10
#454
00
03
#455
10
#456
00
03
#457
10
#458
00
03
#459
10
#460
00
03
#461
10
#462
00
03
#463
10
#464
00
03
#465
10
#466
00
03
#467
10
#468
00
03
#469
10
#470
00
03
#471
10
#472
00
03
#473
10
#474
00
03
#475
10
#476
00
03
#477
10
#478
00
03
#479
10
#480
00
03
#481
10
#482
00
03
#483
10
#484
00
03
#485
10
#486
00
03
#487
10
#488
00
03
#489
10
#490
00
03
#491
10
#492
00
03
#493
10
#494
00
03
#495
10
#496
00
03
#497
10
#498
00
03
#499
10
#500
00
03
#501
10
#502
00
13
#503
10
#504
00
03
#505
10
#506
00
03
11
#507
10
#508
02
00
11
#509
10
#510
00
01
#511
10
#512
02
00
11
#513
10
#514
00
11
#515
10
#516
00
01
#517
10
#518
00
01
#519
10
#520
01
00
02
#521
10
#522
00
02
#523
10
#524
00
02
#525
10
#526
00
02
#527
10
#528
00
02
#529
10
#530
00
12
#531
10
#532
00
02
#533
10
#534
00
02
11
#535
10
#536
02
00
11
#537
10
#538
00
11
#539
10
#540
00
01
#541
10
#542
00
01
#543
10
#544
01
00
03
#545
10
#546
00
03
#547
10
#548
00
03
#549
10
#550
00
03
#551
10
#552
00
03
#553
10
#554
00
03
#555
10
#556
00
03
#557
10
#558
00
03
#559
10
#560
00
03
#561
10
#562
00
03
#563
10
#564
00
03
#565
10
#566
00
03
#567
10
#568
00
03
#569
10
#570
00
03
#571
10
#572
00
03
#573
10
#574
00
03
#575
10
#576
00
03
#577
10
#578
00
03
#579
10
#580
00
03
#581
10
#582
00
03
#583
10
#584
00
03
#585
10
#586
00
03
#587
10
#588
00
03
#589
10
#590
00
03
#591
10
#592
00
03
#593
10
#594
00
03
#595
10
#596
00
03
#597
10
#598
00
03
#599
10
#600
00
03
#601
10
#602
00
13
#603
10
#604
00
03
#605
10
#606
00
13
11
#607
10
#608
02
00
11
#609
10
#610
00
01
#611
10
#612
02
00
11
#613
10
#614
00
11
#615
10
#616
00
01
#617
10
#618
00
01
#619
10
#620
01
00
02
#621
10
#622
00
02
#623
10
#624
00
02
#625
10
#626
00
02
#627
10
#628
00
02
#629
10
#630
00
12
#631
10
#632
00
02
#633
10
#634
00
02
11
#635
10
#636
02
00
11
#637
10
#638
00
11
#639
10
#640
00
01
#641
10
#642
00
01
#643
10
#644
01
00
03
#645
10
#646
00
03
#647
10
#648
00
03
#649
10
#650
00
03
#651
10
#652
00
03
#653
10
#654
00
03
#655
10
#656
00
03
#657
10
#658
00
03
#659
10
#660
00
03
#661
10
#662
00
03
#663
10
#664
00
03
#665
10
#666
00
03
#667
10
#668
00
03
#669
10
#670
00
03
#671
10
#672
00
03
#673
10
#674
00
03
#675
10
#676
00
03
#677
10
#678
00
03
#679
10
#680
00
03
#681
10
#682
00
03
#683
10
#684
00
03
#685
10
#686
00
03
#687
10
#688
00
03
#689
10
#690
00
03
#691
10
#692
00
03
#693
10
#694
00
03
#695
10
#696
00
03
#697
10
#698
00
03
#699
10
#700
00
03
#701
10
#702
00
13
#703
10
#704
00
13
#705
10
#706
00
03
11
#707
10
#708
02
00
11
#709
10
#710
00
01
#711
10
#712
02
00
11
#713
10
#714
00
11
#715
10
#716
00
01
#717
10
#718
00
01
#719
10
#720
01
00
02
#721
10
#722
00
02
#723
10
#724
00
02
#725
10
#726
00
02
#727
10
#728
00
02
#729
10
#730
00
12
#731
10
#732
00
02
#733
10
#734
00
02
11
#735
10
#736
02
00
11
#737
10
#738
00
11
#739
10
#740
00
01
#741
10
#742
00
01
#743
10
#744
01
00
03
#745
10
#746
00
03
#747
10
#748
00
03
#749
10
#750
00
03
#751
10
#752
00
03
#753
10
#754
00
03
#755
10
#756
00
03
#757
10
#758
00
03
#759
10
#760
00
03
#761
10
#762
00
03
#763
10
#764
00
03
#765
10
#766
00
03
#767
10
#768
00
03
#769
10
#770
00
03
#771
10
#772
00
03
#773
10
#774
00
03
#775
10
#776
00
03
#777
10
#778
00
03
#779
10
#780
00
03
#781
10
#782
00
03
#783
10
#784
00
03
#785
10
#786
00
03
#787
10
#788
00
03
#789
10
#790
00
03
#791
10
#792
00
03
#793
10
#794
00
03
#795
10
#796
00
03
#797
10
#798
00
03
#799
10
#800
00
03
#801
10
#802
00
13
#803
10
#804
00
13
#805
10
#806
00
13
11
#807
10
#808
02
00
11
#809
10
#810
00
01
#811
10
#812
02
00
11
#813
10
#814
00
11
#815
10
#816
00
01
#817
10
#818
00
01
#819
10
#820
01
00
02
#821
10
#822
00
02
#823
10
#824
00
02
#825
10
#826
00
02
#827
10
#828
00
02
#829
10
#830
00
12
#831
10
#832
00
02
#833
10
#834
00
02
11
#835
10
#836
02
00
11
#837
10
#838
00
11
#839
10
#840
00
01
#841
10
#842
00
01
#843
10
#844
01
00
03
#845
10
#846
00
03
#847
10
#848
00
03
#849
10
#850
00
03
#851
10
#852
00
03
#853
10
#854
00
03
#855
10
#856
00
03
#857
10
#858
00
03
#859
10
#860
00
03
#861
10
#862
00
03
#863
10
#864
00
03
#865
10
#866
00
03
#867
10
#868
00
03
#869
10
#870
00
03
#871
10
#872
00
03
#873
10
#874
00
03
#875
10
#876
00
03
#877
10
#878
00
03
#879
10
#880
00
03
#881
10
#882
00
03
#883
10
#884
00
03
#885
10
#886
00
03
#887
10
#888
00
03
#889
10
#890
00
03
#891
10
#892
00
03
#893
10
#894
00
03
#895
10
#896
00
03
#897
10
#898
00
03
#899
10
#900
00
13
#901
10
#902
00
03
#903
10
#904
00
03
#905
10
#906
00
03
11
#907
10
#908
02
00
11
#909
10
#910
00
01
#911
10
#912
02
00
11
#913
10
#914
00
11
#915
10
#916
00
01
#917
10
#918
00
01
#919
10
#920
01
00
02
#921
10
#922
00
02
#923
10
#924
00
02
#925
10
#926
00
02
#927
10
#928
00
02
#929
10
#930
00
12
#931
10
#932
00
02
#933
10
#934
00
02
11
#935
10
#936
02
00
11
#937
10
#938
00
11
#939
10
#940
00
01
#941
10
#942
00
01
#943
10
#944
01
00
03
#945
10
#946
00
03
#947
10
#948
00
03
#949
10
#950
00
03
#951
10
#952
00
03
#953
10
#954
00
03
#955
10
#956
00
03
#957
10
#958
00
03
#959
10
#960
00
03
#961
10
#962
00
03
#963
10
#964
00
03
#965
10
#966
00
03
#967
10
#968
00
03
#969
10
#970
00
03
#971
10
#972
00
03
#973
10
#974
00
03
#975
10
#976
00
03
#977
10
#978
00
03
#979
10
#980
00
03
#981
10
#982
00
03
#983
10
#984
00
03
#985
10
#986
00
03
#987
10
#988
00
03
#989
10
#990
00
03
#991
10
#992
00
03
#993
10
#994
00
03
#995
10
#996
00
03
#997
10
#998
00
03
#999
10
#1000
00
13
#1001
10
#1002
00
03
#1003
10
#1004
00
03
#1005
10
#1006
00
13
11
#1007
10
#1008
02
00
11
#1009
10
#1010
00
01
#1011
10
#1012
02
00
11
#1013
10
#1014
00
11
#1015
10
#1016
00
01
#1017
10
#1018
00
01
#1019
10
#1020
01
00
02
#1021
10
#1022
00
02
#1023
10
#1024
00
02
#1025
10
#1026
00
02
#1027
10
#1028
00
02
#1029
10
#1030
00
12
#1031
10
#1032
00
02
#1033
10
#1034
00
02
11
#1035
10
#1036
02
00
11
#1037
10
#1038
00
11
#1039
10
#1040
00
01
#1041
10
#1042
00
01
#1043
10
#1044
01
00
03
#1045
10
#1046
00
03
#1047
10
#1048
00
03
#1049
10
#1050
00
03
#1051
10
#1052
00
03
#1053
10
#1054
00
03
#1055
10
#1056
00
03
#1057
10
#1058
00
03
#1059
10
#1060
00
03
#1061
10
#1062
00
03
#1063
10
#1064
00
03
#1065
10
#1066
00
03
#1067
10
#1068
00
03
#1069
10
#1070
00
03
#1071
10
#1072
00
03
#1073
10
#1074
00
03
#1075
10
#1076
00
03
#1077
10
#1078
00
03
#1079
10
#1080
00
03
#1081
10
#1082
00
03
#1083
10
#1084
00
03
#1085
10
#1086
00
03
#1087
10
#1088
00
03
#1089
10
#1090
00
03
#1091
10
#1092
00
03
#1093
10
#1094
00
03
#1095
10
#1096
00
03
#1097
10
#1098
00
03
#1099
10
#1100
00
13
#1101
10
#1102
00
03
#1103
10
#1104
00
13
#1105
10
#1106
00
03
11
#1107
10
#1108
02
00
11
#1109
10
#1110
00
01
#1111
10
#1112
02
00
11
#1113
10
#1114
00
11
#1115
10
#1116
00
01
#1117
10
#1118
00
01
#1119
10
#1120
01
00
02
#1121
10
#1122
00
02
#1123
10
#1124
00
02
#1125
10
#1126
00
02
#1127
10
#1128
00
02
#1129
10
#1130
00
12
#1131
10
#1132
00
02
#1133
10
#1134
00
02
11
#1135
10
#1136
02
00
11
#1137
10
#1138
00
11
#1139
10
#1140
00
01
#1141
10
#1142
00
01
#1143
10
#1144
01
00
03
#1145
10
#1146
00
03
#1147
10
#1148
00
03
#1149
10
#1150
00
03
#1151
10
#1152
00
03
#1153
10
#1154
00
03
#1155
10
#1156
00
03
#1157
10
#1158
00
03
#1159
10
#1160
00
03
#1161
10
#1162
00
03
#1163
10
#1164
00
03
#1165
10
#1166
00
03
#1167
10
#1168
00
03
#1169
10
#1170
00
03
#1171
10
#1172
00
03
#1173
10
#1174
00
03
#1175
10
#1176
00
03
#1177
10
#1178
00
03
#1179
10
#1180
00
03
#1181
10
#1182
00
03
#1183
10
#1184
00
03
#1185
10
#1186
00
03
#1187
10
#1188
00
03
#1189
10
#1190
00
03
#1191
10
#1192
00
03
#1193
10
#1194
00
03
#1195
10
#1196
00
03
#1197
10
#1198
00
03
#1199
10
#1200
00
13
#1201
10
#1202
00
03
#1203
10
#1204
00
13
#1205
10
#1206
00
13
11
#1207
10
#1208
02
00
11
#1209
10
#1210
00
01
#1211
10
#1212
02
00
11
#1213
10
#1214
00
11
#1215
10
#1216
00
01
#1217
10
#1218
00
01
#1219
10
#1220
01
00
02
#1221
10
#1222
00
02
#1223
10
#1224
00
02
#1225
10
#1226
00
02
#1227
10
#1228
00
02
#1229
10
#1230
00
12
#1231
10
#1232
00
02
#1233
10
#1234
00
02
11
#1235
10
#1236
02
00
11
#1237
10
#1238
00
11
#1239
10
#1240
00
01
#1241
10
#1242
00
01
#1243
10
#1244
01
00
03
#1245
10
#1246
00
03
#1247
10
#1248
00
03
#1249
10
#1250
00
03
#1251
10
#1252
00
03
#1253
10
#1254
00
03
#1255
10
#1256
00
03
#1257
10
#1258
00
03
#1259
10
#1260
00
03
#1261
10
#1262
00
03
#1263
10
#1264
00
03
#1265
10
#1266
00
03
#1267
10
#1268
00
03
#1269
10
#1270
00
03
#1271
10
#1272
00
03
#1273
10
#1274
00
03
#1275
10
#1276
00
03
#1277
10
#1278
00
03
#1279
10
#1280
00
03
#1281
10
#1282
00
03
#1283
10
#1284
00
03
#1285
10
#1286
00
03
#1287
10
#1288
00
03
#1289
10
#1290
00
03
#1291
10
#1292
00
03
#1293
10
#1294
00
03
#1295
10
#1296
00
03
#1297
10
#1298
00
03
#1299
10
#1300
00
13
#1301
10
#1302
00
13
#1303
10
#1304
00
03
#1305
10
#1306
00
03
11
#1307
10
#1308
02
00
11
#1309
10
#1310
00
01
#1311
10
#1312
02
00
11
#1313
10
#1314
00
11
#1315
10
#1316
00
01
#1317
10
#1318
00
01
#1319
10
#1320
01
00
02
#1321
10
#1322
00
02
#1323
10
#1324
00
02
#1325
10
#1326
00
02
#1327
10
#1328
00
02
#1329
10
#1330
00
12
#1331
10
#1332
00
02
#1333
10
#1334
00
02
11
#1335
10
#1336
02
00
11
#1337
10
#1338
00
11
#1339
10
#1340
00
01
#1341
10
#1342
00
01
#1343
10
#1344
01
00
03
#1345
10
#1346
00
03
#1347
10
#1348
00
03
#1349
10
#1350
00
03
#1351
10
#1352
00
03
#1353
10
#1354
00
03
#1355
10
#1356
00
03
#1357
10
#1358
00
03
#1359
10
#1360
00
03
#1361
10
#1362
00
03
#1363
10
#1364
00
03
#1365
10
#1366
00
03
#1367
10
#1368
00
03
#1369
10
#1370
00
03
#1371
10
#1372
00
03
#1373
10
#1374
00
03
#1375
10
#1376
00
03
#1377
10
#1378
00
03
#1379
10
#1380
00
03
#1381
10
#1382
00
03
#1383
10
#1384
00
03
#1385
10
#1386
00
03
#1387
10
#1388
00
03
#1389
10
#1390
00
03
#1391
10
#1392
00
03
#1393
10
#1394
00
03
#1395
10
#1396
00
03
#1397
10
#1398
00
03
#1399
10
#1400
00
13
#1401
10
#1402
00
13
#1403
10
#1404
00
03
#1405
10
#1406
00
13
11
#1407
10
#1408
02
00
11
#1409
10
#1410
00
01
#1411
10
#1412
02
00
11
#1413
10
#1414
00
11
#1415
10
#1416
00
01
#1417
10
#1418
00
01
#1419
10
#1420
01
00
02
#1421
10
#1422
00
02
#1423
10
#1424
00
02
#1425
10
#1426
00
02
#1427
10
#1428
00
02
#1429
10
#1430
00
12
#1431
10
#1432
00
02
#1433
10
#1434
00
02
11
#1435
10
#1436
02
00
11
#1437
10
#1438
00
11
#1439
10
#1440
00
01
#1441
10
#1442
00
01
#1443
10
#1444
01
00
03
#1445
10
#1446
00
03
#1447
10
#1448
00
03
#1449
10
#1450
00
03
#1451
10
#1452
00
03
#1453
10
#1454
00
03
#1455
10
#1456
00
03
#1457
10
#1458
00
03
#1459
10
#1460
00
03
#1461
10
#1462
00
03
#1463
10
#1464
00
03
#1465
10
#1466
00
03
#1467
10
#1468
00
03
#1469
10
#1470
00
03
#1471
10
#1472
00
03
#1473
10
#1474
00
03
#1475
10
#1476
00
03
#1477
10
#1478
00
03
#1479
10
#1480
00
03
#1481
10
#1482
00
03
#1483
10
#1484
00
03
#1485
10
#1486
00
03
#1487
10
#1488
00
03
#1489
10
#1490
00
03
#1491
10
#1492
00
03
#1493
10
#1494
00
03
#1495
10
#1496
00
03
#1497
10
#1498
00
03
#1499
10
#1500
00
13
#1501
10
#1502
00
13
#1503
10
#1504
00
13
#1505
10
#1506
00
03
11
#1507
10
#1508
02
00
11
#1509
10
#1510
00
01
#1511
10
#1512
02
00
11
#1513
10
#1514
00
11
#1515
10
#1516
00
01
#1517
10
#1518
00
01
#1519
10
#1520
01
00
02
#1521
10
#1522
00
02
#1523
10
#1524
00
02
#1525
10
#1526
00
02
#1527
10
#1528
00
02
#1529
10
#1530
00
12
#1531
10
#1532
00
02
#1533
10
#1534
00
02
11
#1535
10
#1536
02
00
11
#1537
10
#1538
00
11
#1539
10
#1540
00
01
#1541
10
#1542
00
01
#1543
10
#1544
01
00
03
#1545
10
#1546
00
03
#1547
10
#1548
00
03
#1549
10
#1550
00
03
#1551
10
#1552
00
03
#1553
10
#1554
00
03
#1555
10
#1556
00
03
#1557
10
#1558
00
03
#1559
10
#1560
00
03
#1561
10
#1562
00
03
#1563
10
#1564
00
03
#1565
10
#1566
00
03
#1567
10
#1568
00
03
#1569
10
#1570
00
03
#1571
10
#1572
00
03
#1573
10
#1574
00
03
#1575
10
#1576
00
03
#1577
10
#1578
00
03
#1579
10
#1580
00
03
#1581
10
#1582
00
03
#1583
10
#1584
00
03
#1585
10
#1586
00
03
#1587
10
#1588
00
03
#1589
10
#1590
00
03
#1591
10
#1592
00
03
#1593
10
#1594
00
03
#1595
10
#1596
00
03
#1597
10
#1598
00
03
#1599
10
#1600
00
13
#1601
10
#1602
00
13
#1603
10
#1604
00
13
#1605
10
#1606
00
13
11
#1607
10
#1608
02
00
11
#1609
10
#1610
00
01
#1611
10
#1612
02
00
11
#1613
10
#1614
00
11
#1615
10
#1616
00
01
#1617
10
#1618
00
01
#1619
10
#1620
01
00
02
#1621
10
#1622
00
02
#1623
10
#1624
00
02
#1625
10
#1626
00
02
#1627
10
#1628
00
02
#1629
10
#1630
00
12
#1631
10
#1632
00
02
#1633
10
#1634
00
02
11
#1635
10
#1636
02
00
11
#1637
10
#1638
00
11
#1639
10
#1640
00
01
#1641
10
#1642
00
01
#1643
10
#1644
01
00
03
#1645
10
#1646
00
03
#1647
10
#1648
00
03
#1649
10
#1650
00
03
#1651
10
#1652
00
03
#1653
10
#1654
00
03
#1655
10
#1656
00
03
#1657
10
#1658
00
03
#1659
10
#1660
00
03
#1661
10
#1662
00
03
#1663
10
#1664
00
03
#1665
10
#1666
00
03
#1667
10
#1668
00
03
#1669
10
#1670
00
03
#1671
10
#1672
00
03
#1673
10
#1674
00
03
#1675
10
#1676
00
03
#1677
10
#1678
00
03
#1679
10
#1680
00
03
#1681
10
#1682
00
03
#1683
10
#1684
00
03
#1685
10
#1686
00
03
#1687
10
#1688
00
03
#1689
10
#1690
00
03
#1691
10
#1692
00
03
#1693
10
#1694
00
03
#1695
10
#1696
00
03
#1697
10
#1698
00
13
#1699
10
#1700
00
03
#1701
10
#1702
00
03
#1703
10
#1704
00
03
#1705
10
#1706
00
03
11
#1707
10
#1708
02
00
11
#1709
10
#1710
00
01
#1711
10
#1712
02
00
11
#1713
10
#1714
00
11
#1715
10
#1716
00
01
#1717
10
#1718
00
01
#1719
10
#1720
01
00
02
#1721
10
#1722
00
02
#1723
10
#1724
00
02
#1725
10
#1726
00
02
#1727
10
#1728
00
02
#1729
10
#1730
00
12
#1731
10
#1732
00
02
#1733
10
#1734
00
02
11
#1735
10
#1736
02
00
11
#1737
10
#1738
00
11
#1739
10
#1740
00
01
#1741
10
#1742
00
01
#1743
10
#1744
01
00
03
#1745
10
#1746
00
03
#1747
10
#1748
00
03
#1749
10
#1750
00
03
#1751
10
#1752
00
03
#1753
10
#1754
00
03
#1755
10
#1756
00
03
#1757
10
#1758
00
03
#1759
10
#1760
00
03
#1761
10
#1762
00
03
#1763
10
#1764
00
03
#1765
10
#1766
00
03
#1767
10
#1768
00
03
#1769
10
#1770
00
03
#1771
10
#1772
00
03
#1773
10
#1774
00
03
#1775
10
#1776
00
03
#1777
10
#1778
00
03
#1779
10
#1780
00
03
#1781
10
#1782
00
03
#1783
10
#1784
00
03
#1785
10
#1786
00
03
#1787
10
#1788
00
03
#1789
10
#1790
00
03
#1791
10
#1792
00
03
#1793
10
#1794
00
03
#1795
10
#1796
00
03
#1797
10
#1798
00
13
#1799
10
#1800
00
03
#1801
10
#1802
00
03
#1803
10
#1804
00
03
#1805
10
#1806
00
13
11
#1807
10
#1808
02
00
11
#1809
10
#1810
00
01
#1811
10
#1812
02
00
11
#1813
10
#1814
00
11
#1815
10
#1816
00
01
#1817
10
#1818
00
01
#1819
10
#1820
01
00
02
#1821
10
#1822
00
02
#1823
10
#1824
00
02
#1825
10
#1826
00
02
#1827
10
#1828
00
02
#1829
10
#1830
00
12
#1831
10
#1832
00
02
#1833
10
#1834
00
02
11
#1835
10
#1836
02
00
11
#1837
10
#1838
00
11
#1839
10
#1840
00
01
#1841
10
#1842
00
01
#1843
10
#1844
01
00
03
#1845
10
#1846
00
03
#1847
10
#1848
00
03
#1849
10
#1850
00
03
#1851
10
#1852
00
03
#1853
10
#1854
00
03
#1855
10
#1856
00
03
#1857
10
#1858
00
03
#1859
10
#1860
00
03
#1861
10
#1862
00
03
#1863
10
#1864
00
03
#1865
10
#1866
00
03
#1867
10
#1868
00
03
#1869
10
#1870
00
03
#1871
10
#1872
00
03
#1873
10
#1874
00
03
#1875
10
#1876
00
03
#1877
10
#1878
00
03
#1879
10
#1880
00
03
#1881
10
#1882
00
03
#1883
10
#1884
00
03
#1885
10
#1886
00
03
#1887
10
#1888
00
03
#1889
10
#1890
00
03
#1891
10
#1892
00
03
#1893
10
#1894
00
03
#1895
10
#1896
00
03
#1897
10
#1898
00
13
#1899
10
#1900
00
03
#1901
10
#1902
00
03
#1903
10
#1904
00
13
#1905
10
#1906
00
03
11
#1907
10
#1908
02
00
11
#1909
10
#1910
00
01
#1911
10
#1912
02
00
11
#1913
10
#1914
00
11
#1915
10
#1916
00
01
#1917
10
#1918
00
01
#1919
10
#1920
01
00
02
#1921
10
#1922
00
02
#1923
10
#1924
00
02
#1925
10
#1926
00
02
#1927
10
#1928
00
02
#1929
10
#1930
00
12
#1931
10
#1932
00
02
#1933
10
#1934
00
02
11
#1935
10
#1936
02
00
11
#1937
10
#1938
00
11
#1939
10
#1940
00
01
#1941
10
#1942
00
01
#1943
10
#1944
01
00
03
#1945
10
#1946
00
03
#1947
10
#1948
00
03
#1949
10
#1950
00
03
#1951
10
#1952
00
03
#1953
10
#1954
00
03
#1955
10
#1956
00
03
#1957
10
#1958
00
03
#1959
10
#1960
00
03
#1961
10
#1962
00
03
#1963
10
#1964
00
03
#1965
10
#1966
00
03
#1967
10
#1968
00
03
#1969
10
#1970
00
03
#1971
10
#1972
00
03
#1973
10
#1974
00
03
#1975
10
#1976
00
03
#1977
10
#1978
00
03
#1979
10
#1980
00
03
#1981
10
#1982
00
03
#1983
10
#1984
00
03
#1985
10
#1986
00
03
#1987
10
#1988
00
03
#1989
10
#1990
00
03
#1991
10
#1992
00
03
#1993
10
#1994
00
03
#1995
10
#1996
00
03
#1997
10
#1998
00
13
#1999
10
#2000
00
03
#2001
10
#2002
00
03
#2003
10
#2004
00
13
#2005
10
#2006
00
13
11
#2007
10
#2008
02
00
11
#2009
10
#2010
00
01
#2011
10
#2012
02
00
11
#2013
10
#2014
00
11
#2015
10
#2016
00
01
#2017
10
#2018
00
01
#2019
10
#2020
01
00
02
#2021
10
#2022
00
02
#2023
10
#2024
00
02
#2025
10
#2026
00
02
#2027
10
#2028
00
02
#2029
10
#2030
00
12
#2031
10
#2032
00
02
#2033
10
#2034
00
02
11
#2035
10
#2036
02
00
11
#2037
10
#2038
00
11
#2039
10
#2040
00
01
#2041
10
#2042
00
01
#2043
10
#2044
01
00
03
#2045
10
#2046
00
03
#2047
10
#2048
00
03
#2049
10
#2050
00
03
#2051
10
#2052
00
03
#2053
10
#2054
00
03
#2055
10
#2056
00
03
#2057
10
#2058
00
03
#2059
10
#2060
00
03
#2061
10
#2062
00
03
#2063
10
#2064
00
03
#2065
10
#2066
00
03
#2067
10
#2068
00
03
#2069
10
#2070
00
03
#2071
10
#2072
00
03
#2073
10
#2074
00
03
#2075
10
#2076
00
03
#2077
10
#2078
00
03
#2079
10
#2080
00
03
#2081
10
#2082
00
03
#2083
10
#2084
00
03
#2085
10
#2086
00
03
#2087
10
#2088
00
03
#2089
10
#2090
00
03
#2091
10
#2092
00
03
#2093
10
#2094
00
03
#2095
10
#2096
00
03
#2097
10
#2098
00
13
#2099
10
#2100
00
03
#2101
10
#2102
00
13
#2103
10
#2104
00
03
#2105
10
#2106
00
03
11
#2107
10
#2108
02
00
11
#2109
10
#2110
00
01
#2111
10
#2112
02
00
11
#2113
10
#2114
00
11
#2115
10
#2116
00
01
#2117
10
#2118
00
01
#2119
10
#2120
01
00
02
#2121
10
#2122
00
02
#2123
10
#2124
00
02
#2125
10
#2126
00
02
#2127
10
#2128
00
02
#2129
10
#2130
00
12
#2131
10
#2132
00
02
#2133
10
#2134
00
02
11
#2135
10
#2136
02
00
11
#2137
10
#2138
00
11
#2139
10
#2140
00
01
#2141
10
#2142
00
01
#2143
10
#2144
01
00
03
#2145
10
#2146
00
03
#2147
10
#2148
00
03
#2149
10
#2150
00
03
#2151
10
#2152
00
03
#2153
10
#2154
00
03
#2155
10
#2156
00
03
#2157
10
#2158
00
03
#2159
10
#2160
00
03
#2161
10
#2162
00
03
#2163
10
#2164
00
03
#2165
10
#2166
00
03
#2167
10
#2168
00
03
#2169
10
#2170
00
03
#2171
10
#2172
00
03
#2173
10
#2174
00
03
#2175
10
#2176
00
03
#2177
10
#2178
00
03
#2179
10
#2180
00
03
#2181
10
#2182
00
03
#2183
10
#2184
00
03
#2185
10
#2186
00
03
#2187
10
#2188
00
03
#2189
10
#2190
00
03
#2191
10
#2192
00
03
#2193
10
#2194
00
03
#2195
10
#2196
00
03
#2197
10
#2198
00
13
#2199
10
#2200
00
03
#2201
10
#2202
00
13
#2203
10
#2204
00
03
#2205
10
#2206
00
13
11
#2207
10
#2208
02
00
11
#2209
10
#2210
00
01
#2211
10
#2212
02
00
11
#2213
10
#2214
00
11
#2215
10
#2216
00
01
#2217
10
#2218
00
01
#2219
10
#2220
01
00
02
#2221
10
